{
  "get_pending_payments": {
    "endpoint": "GET /api/payments/pending",
    "query_params": {
      "tenantId": "string",
      "ownerId": "string (optional)",
      "roomId": "string (optional)",
      "status": "pending|overdue",
      "limit": "number (default: 50)",
      "offset": "number (default: 0)"
    },
    "example_request": {
      "url": "https://www.leranothrive.com/api/payments/pending?tenantId=243c1c48-9216-45ca-a1c0-31db20ad403d&status=pending&limit=10",
      "method": "GET",
      "headers": {
        "Content-Type": "application/json",
        "Authorization": "Bearer <token>"
      }
    },
    "example_response": {
      "success": true,
      "message": "Pending payments fetched successfully",
      "data": {
        "payments": [
          {
            "id": "pay_001",
            "tenantId": "243c1c48-9216-45ca-a1c0-31db20ad403d",
            "tenantName": "John Doe",
            "ownerId": "owner_123",
            "roomId": "room_001",
            "roomNumber": "101",
            "buildingId": "building_001",
            "buildingName": "Sunrise Apartments",
            "amount": 15000.0,
            "lateFee": 500.0,
            "totalAmount": 15500.0,
            "dueDate": "2026-01-15T00:00:00.000Z",
            "type": "rent",
            "month": "January",
            "year": 2026,
            "status": "pending",
            "description": "Monthly rent for January 2026",
            "createdAt": "2025-12-15T00:00:00.000Z",
            "updatedAt": "2026-01-13T10:30:00.000Z",
            "paymentMethods": ["upi", "bank_transfer", "cash"],
            "remindersSent": 2,
            "lastReminderDate": "2026-01-10T09:00:00.000Z"
          },
          {
            "id": "pay_002",
            "tenantId": "243c1c48-9216-45ca-a1c0-31db20ad403d",
            "tenantName": "John Doe",
            "ownerId": "owner_123",
            "roomId": "room_001",
            "roomNumber": "101",
            "buildingId": "building_001",
            "buildingName": "Sunrise Apartments",
            "amount": 2000.0,
            "lateFee": 0.0,
            "totalAmount": 2000.0,
            "dueDate": "2026-01-20T00:00:00.000Z",
            "type": "maintenance",
            "month": "January",
            "year": 2026,
            "status": "pending",
            "description": "Monthly maintenance charges",
            "createdAt": "2025-12-20T00:00:00.000Z",
            "updatedAt": "2026-01-13T10:30:00.000Z",
            "paymentMethods": ["upi", "bank_transfer"],
            "remindersSent": 1,
            "lastReminderDate": "2026-01-12T09:00:00.000Z"
          }
        ],
        "pagination": {
          "total": 2,
          "limit": 10,
          "offset": 0,
          "hasMore": false
        },
        "summary": {
          "totalPendingAmount": 17500.0,
          "totalLateFees": 500.0,
          "overdueCount": 1,
          "pendingCount": 1
        }
      }
    }
  },

  "get_payment_history": {
    "endpoint": "GET /api/payments/history",
    "query_params": {
      "tenantId": "string",
      "ownerId": "string (optional)",
      "roomId": "string (optional)",
      "status": "paid|failed|cancelled",
      "fromDate": "ISO date string (optional)",
      "toDate": "ISO date string (optional)",
      "limit": "number (default: 50)",
      "offset": "number (default: 0)"
    },
    "example_request": {
      "url": "https://www.leranothrive.com/api/payments/history?tenantId=243c1c48-9216-45ca-a1c0-31db20ad403d&status=paid&limit=20",
      "method": "GET",
      "headers": {
        "Content-Type": "application/json",
        "Authorization": "Bearer <token>"
      }
    },
    "example_response": {
      "success": true,
      "message": "Payment history fetched successfully",
      "data": {
        "payments": [
          {
            "id": "pay_003",
            "tenantId": "243c1c48-9216-45ca-a1c0-31db20ad403d",
            "tenantName": "John Doe",
            "ownerId": "owner_123",
            "roomId": "room_001",
            "roomNumber": "101",
            "amount": 15000.0,
            "lateFee": 0.0,
            "totalAmount": 15000.0,
            "paidAmount": 15000.0,
            "dueDate": "2025-12-15T00:00:00.000Z",
            "paidDate": "2025-12-14T14:30:00.000Z",
            "type": "rent",
            "month": "December",
            "year": 2025,
            "status": "paid",
            "paymentMethod": "upi",
            "transactionId": "TXN1734180600123_4567",
            "upiTransactionId": "UPI123456789",
            "description": "Monthly rent for December 2025",
            "createdAt": "2025-11-15T00:00:00.000Z",
            "updatedAt": "2025-12-14T14:30:00.000Z",
            "receipt": {
              "receiptNumber": "RCP_001",
              "receiptUrl": "https://example.com/receipts/RCP_001.pdf"
            }
          }
        ],
        "pagination": {
          "total": 12,
          "limit": 20,
          "offset": 0,
          "hasMore": false
        },
        "summary": {
          "totalPaidAmount": 180000.0,
          "totalTransactions": 12,
          "averagePaymentTime": "2.5 days before due date"
        }
      }
    }
  },

  "get_payment_statistics": {
    "endpoint": "GET /api/payments/statistics",
    "query_params": {
      "tenantId": "string",
      "ownerId": "string (optional)",
      "period": "month|quarter|year",
      "year": "number (optional)",
      "month": "number (optional)"
    },
    "example_request": {
      "url": "https://www.leranothrive.com/api/payments/statistics?tenantId=243c1c48-9216-45ca-a1c0-31db20ad403d&period=year&year=2026",
      "method": "GET",
      "headers": {
        "Content-Type": "application/json",
        "Authorization": "Bearer <token>"
      }
    },
    "example_response": {
      "success": true,
      "message": "Payment statistics fetched successfully",
      "data": {
        "period": "year",
        "year": 2026,
        "totalPayments": 24,
        "totalAmount": 360000.0,
        "totalPaid": 180000.0,
        "totalPending": 180000.0,
        "totalOverdue": 15500.0,
        "totalLateFees": 2500.0,
        "onTimePayments": 10,
        "latePayments": 2,
        "paymentRate": 83.33,
        "averagePaymentDelay": "1.2 days",
        "monthlyBreakdown": [
          {
            "month": 1,
            "monthName": "January",
            "totalAmount": 17000.0,
            "paidAmount": 0.0,
            "pendingAmount": 17000.0,
            "overdueAmount": 15500.0,
            "paymentsCount": 2,
            "paidCount": 0,
            "pendingCount": 2
          },
          {
            "month": 12,
            "monthName": "December",
            "totalAmount": 17000.0,
            "paidAmount": 17000.0,
            "pendingAmount": 0.0,
            "overdueAmount": 0.0,
            "paymentsCount": 2,
            "paidCount": 2,
            "pendingCount": 0
          }
        ],
        "paymentMethods": {
          "upi": {
            "count": 8,
            "amount": 120000.0,
            "percentage": 66.67
          },
          "bank_transfer": {
            "count": 3,
            "amount": 45000.0,
            "percentage": 25.0
          },
          "cash": {
            "count": 1,
            "amount": 15000.0,
            "percentage": 8.33
          }
        }
      }
    }
  },

  "initiate_payment": {
    "endpoint": "POST /api/payments/initiate",
    "request_body": {
      "paymentId": "string",
      "tenantId": "string",
      "tenantName": "string",
      "ownerId": "string",
      "ownerName": "string",
      "ownerUpiId": "string",
      "roomId": "string",
      "roomNumber": "string",
      "amount": "number",
      "paymentType": "rent|maintenance|deposit|utility",
      "month": "string",
      "year": "number",
      "description": "string (optional)",
      "paymentMethod": "upi|bank_transfer|cash",
      "transactionId": "string",
      "clientMetadata": {
        "deviceId": "string",
        "appVersion": "string",
        "platform": "android|ios"
      }
    },
    "example_request": {
      "url": "https://www.leranothrive.com/api/payments/initiate",
      "method": "POST",
      "headers": {
        "Content-Type": "application/json",
        "Authorization": "Bearer <token>"
      },
      "body": {
        "paymentId": "pay_001",
        "tenantId": "243c1c48-9216-45ca-a1c0-31db20ad403d",
        "tenantName": "John Doe",
        "ownerId": "owner_123",
        "ownerName": "Property Owner",
        "ownerUpiId": "owner@paytm",
        "roomId": "room_001",
        "roomNumber": "101",
        "amount": 15000.0,
        "paymentType": "rent",
        "month": "January",
        "year": 2026,
        "description": "Monthly rent payment for January 2026",
        "paymentMethod": "upi",
        "transactionId": "TXN1768301478503_4880",
        "clientMetadata": {
          "deviceId": "android_device_123",
          "appVersion": "1.0.0",
          "platform": "android"
        }
      }
    },
    "example_response": {
      "success": true,
      "message": "Payment initiated successfully",
      "data": {
        "paymentId": "pay_001",
        "transactionId": "TXN1768301478503_4880",
        "status": "initiated",
        "upiUrl": "upi://pay?pa=owner@paytm&pn=Property%20Owner&tr=TXN1768301478503_4880&am=15000.0&cu=INR&tn=rent%20payment%20for%20Room%20101%20-%20January%202026&mode=02&orgid=159761",
        "expiresAt": "2026-01-13T11:30:00.000Z",
        "trackingId": "track_123456789"
      }
    }
  },

  "update_payment_status": {
    "endpoint": "PUT /api/payments/{paymentId}/status",
    "request_body": {
      "status": "paid|failed|cancelled|pending",
      "transactionId": "string",
      "upiTransactionId": "string (optional)",
      "paidAmount": "number (optional)",
      "paidDate": "ISO date string (optional)",
      "paymentMethod": "upi|bank_transfer|cash",
      "notes": "string (optional)",
      "receipt": {
        "receiptNumber": "string (optional)",
        "receiptUrl": "string (optional)"
      }
    },
    "example_request": {
      "url": "https://www.leranothrive.com/api/payments/pay_001/status",
      "method": "PUT",
      "headers": {
        "Content-Type": "application/json",
        "Authorization": "Bearer <token>"
      },
      "body": {
        "status": "paid",
        "transactionId": "TXN1768301478503_4880",
        "upiTransactionId": "UPI123456789",
        "paidAmount": 15000.0,
        "paidDate": "2026-01-13T10:45:00.000Z",
        "paymentMethod": "upi",
        "notes": "Payment completed via Google Pay",
        "receipt": {
          "receiptNumber": "RCP_002",
          "receiptUrl": "https://example.com/receipts/RCP_002.pdf"
        }
      }
    },
    "example_response": {
      "success": true,
      "message": "Payment status updated successfully",
      "data": {
        "paymentId": "pay_001",
        "status": "paid",
        "paidAmount": 15000.0,
        "paidDate": "2026-01-13T10:45:00.000Z",
        "updatedAt": "2026-01-13T10:45:00.000Z",
        "receipt": {
          "receiptNumber": "RCP_002",
          "receiptUrl": "https://example.com/receipts/RCP_002.pdf"
        }
      }
    }
  },

  "get_owner_payments": {
    "endpoint": "GET /api/payments/owner",
    "query_params": {
      "ownerId": "string",
      "status": "all|pending|paid|overdue",
      "roomId": "string (optional)",
      "buildingId": "string (optional)",
      "fromDate": "ISO date string (optional)",
      "toDate": "ISO date string (optional)",
      "limit": "number (default: 50)",
      "offset": "number (default: 0)"
    },
    "example_request": {
      "url": "https://www.leranothrive.com/api/payments/owner?ownerId=owner_123&status=all&limit=20",
      "method": "GET",
      "headers": {
        "Content-Type": "application/json",
        "Authorization": "Bearer <token>"
      }
    },
    "example_response": {
      "success": true,
      "message": "Owner payments fetched successfully",
      "data": {
        "payments": [
          {
            "id": "pay_001",
            "tenantId": "243c1c48-9216-45ca-a1c0-31db20ad403d",
            "tenantName": "John Doe",
            "roomId": "room_001",
            "roomNumber": "101",
            "buildingId": "building_001",
            "buildingName": "Sunrise Apartments",
            "amount": 15000.0,
            "lateFee": 500.0,
            "totalAmount": 15500.0,
            "dueDate": "2026-01-15T00:00:00.000Z",
            "type": "rent",
            "month": "January",
            "year": 2026,
            "status": "pending",
            "description": "Monthly rent for January 2026",
            "createdAt": "2025-12-15T00:00:00.000Z",
            "updatedAt": "2026-01-13T10:30:00.000Z"
          }
        ],
        "pagination": {
          "total": 48,
          "limit": 20,
          "offset": 0,
          "hasMore": true
        },
        "summary": {
          "totalRevenue": 720000.0,
          "totalPending": 35000.0,
          "totalOverdue": 15500.0,
          "totalLateFees": 2500.0,
          "collectionRate": 92.5,
          "averagePaymentDelay": "1.8 days"
        }
      }
    }
  }
}